\contentsline {chapter}{\numberline {1}Version 2b}{3}{chapter.1}% 
\contentsline {section}{\numberline {1.1}Planung}{3}{section.0.1}% 
\contentsline {subsection}{\numberline {1.1.1}Problembaum}{3}{subsection.1.1}% 
\contentsline {subsection}{\numberline {1.1.2}Zielbaum}{5}{subsection.1.2}% 
\contentsline {section}{\numberline {1.2}Analyse}{7}{section.0.2}% 
\contentsline {subsection}{\numberline {1.2.1}Lastenheft}{7}{subsection.1.1}% 
\contentsline {subsubsection}{\nonumberline Einleitung}{7}{section*.2}% 
\contentsline {subsubsection}{\nonumberline Ziele}{7}{section*.3}% 
\contentsline {subsubsection}{\nonumberline Rahmenbedingungen}{7}{section*.4}% 
\contentsline {subsubsection}{\nonumberline Kontext und \"Uberblick}{7}{section*.5}% 
\contentsline {subsubsection}{\nonumberline Funktionale Anforderungen}{8}{section*.6}% 
\contentsline {subsubsection}{\nonumberline Nichtfunktionale Anforderungen}{9}{section*.7}% 
\contentsline {subsubsection}{\nonumberline Qualit\"atsanforderungen}{10}{section*.8}% 
\contentsline {subsubsection}{\nonumberline Versionen}{10}{section*.9}% 
\contentsline {subsubsection}{\nonumberline Glossar}{11}{section*.10}% 
\contentsline {subsection}{\numberline {1.2.2}Pflichtenheft}{12}{subsection.1.2}% 
\contentsline {subsubsection}{\nonumberline Einleitung}{12}{section*.11}% 
\contentsline {subsubsection}{\nonumberline Ziele}{12}{section*.12}% 
\contentsline {subsubsection}{\nonumberline Rahmenbedingungen}{12}{section*.13}% 
\contentsline {subsubsection}{\nonumberline Kontext und \"Uberblick}{12}{section*.14}% 
\contentsline {subsubsection}{\nonumberline Funktionale Anforderungen}{13}{section*.15}% 
\contentsline {subsubsection}{\nonumberline Qualit\"atsanforderungen}{14}{section*.16}% 
\contentsline {subsubsection}{\nonumberline Abnahmekriterien}{14}{section*.17}% 
\contentsline {subsubsection}{\nonumberline Glossar}{15}{section*.18}% 
\contentsline {subsection}{\numberline {1.2.3}Funktionsbaum}{16}{subsection.1.3}% 
\contentsline {subsection}{\numberline {1.2.4}Anwendungsfalldiagramm}{18}{subsection.1.4}% 
\contentsline {subsection}{\numberline {1.2.5}Aktivit\IeC {\"a}tsdiagramm}{21}{subsection.1.5}% 
\contentsline {subsection}{\numberline {1.2.6}Paketdiagramm}{27}{subsection.1.6}% 
\contentsline {subsection}{\numberline {1.2.7}Klassendiagramm}{31}{subsection.1.7}% 
\contentsline {section}{\numberline {1.3}Entwurf}{33}{section.0.3}% 
\contentsline {subsection}{\numberline {1.3.1}Paketdiagramm}{33}{subsection.1.1}% 
\contentsline {subsection}{\numberline {1.3.2}Klassendiagramm}{35}{subsection.1.2}% 
\contentsline {subsubsection}{\nonumberline Vertr\IeC {\"a}ge/OCL}{37}{section*.19}% 
